2021-08-10T05:26:34+00:00 CRITICAL Uncaught TypeError: call_user_func(): Argument #1 ($function) must be a valid callback, non-static method Astra_Builder_Header::header_woo_cart() cannot be called statically in D:\XAMPP\htdocs\ThuongMaiDienTu_WP\wp-includes\customize\class-wp-customize-partial.php:221
Stack trace:
#0 D:\XAMPP\htdocs\ThuongMaiDienTu_WP\wp-includes\customize\class-wp-customize-selective-refresh.php(371): WP_Customize_Partial->render(Array)
#1 D:\XAMPP\htdocs\ThuongMaiDienTu_WP\wp-includes\class-wp-hook.php(292): WP_Customize_Selective_Refresh->handle_render_partials_request('')
#2 D:\XAMPP\htdocs\ThuongMaiDienTu_WP\wp-includes\class-wp-hook.php(316): WP_Hook->apply_filters(NULL, Array)
#3 D:\XAMPP\htdocs\ThuongMaiDienTu_WP\wp-includes\plugin.php(484): WP_Hook->do_action(Array)
#4 D:\XAMPP\htdocs\ThuongMaiDienTu_WP\wp-includes\template-loader.php(13): do_action('template_redire...')
#5 D:\XAMPP\htdocs\ThuongMaiDienTu_WP\wp-blog-header.php(19): require_once('D:\\XAMPP\\htdocs...')
#6 D:\XAMPP\htdocs\ThuongMaiDienTu_WP\index.php(17): require('D:\\XAMPP\\htdocs...')
#7 {main}
  thrown in D:\XAMPP\htdocs\ThuongMaiDienTu_WP\wp-includes\customize\class-wp-customize-partial.php on line 221

2021-08-10T05:26:35+00:00 CRITICAL Uncaught TypeError: call_user_func(): Argument #1 ($function) must be a valid callback, non-static method Astra_Builder_Header::header_woo_cart() cannot be called statically in D:\XAMPP\htdocs\ThuongMaiDienTu_WP\wp-includes\customize\class-wp-customize-partial.php:221
Stack trace:
#0 D:\XAMPP\htdocs\ThuongMaiDienTu_WP\wp-includes\customize\class-wp-customize-selective-refresh.php(371): WP_Customize_Partial->render(Array)
#1 D:\XAMPP\htdocs\ThuongMaiDienTu_WP\wp-includes\class-wp-hook.php(292): WP_Customize_Selective_Refresh->handle_render_partials_request('')
#2 D:\XAMPP\htdocs\ThuongMaiDienTu_WP\wp-includes\class-wp-hook.php(316): WP_Hook->apply_filters(NULL, Array)
#3 D:\XAMPP\htdocs\ThuongMaiDienTu_WP\wp-includes\plugin.php(484): WP_Hook->do_action(Array)
#4 D:\XAMPP\htdocs\ThuongMaiDienTu_WP\wp-includes\template-loader.php(13): do_action('template_redire...')
#5 D:\XAMPP\htdocs\ThuongMaiDienTu_WP\wp-blog-header.php(19): require_once('D:\\XAMPP\\htdocs...')
#6 D:\XAMPP\htdocs\ThuongMaiDienTu_WP\index.php(17): require('D:\\XAMPP\\htdocs...')
#7 {main}
  thrown in D:\XAMPP\htdocs\ThuongMaiDienTu_WP\wp-includes\customize\class-wp-customize-partial.php on line 221

2021-08-10T05:26:36+00:00 CRITICAL Uncaught TypeError: call_user_func(): Argument #1 ($function) must be a valid callback, non-static method Astra_Builder_Header::header_woo_cart() cannot be called statically in D:\XAMPP\htdocs\ThuongMaiDienTu_WP\wp-includes\customize\class-wp-customize-partial.php:221
Stack trace:
#0 D:\XAMPP\htdocs\ThuongMaiDienTu_WP\wp-includes\customize\class-wp-customize-selective-refresh.php(371): WP_Customize_Partial->render(Array)
#1 D:\XAMPP\htdocs\ThuongMaiDienTu_WP\wp-includes\class-wp-hook.php(292): WP_Customize_Selective_Refresh->handle_render_partials_request('')
#2 D:\XAMPP\htdocs\ThuongMaiDienTu_WP\wp-includes\class-wp-hook.php(316): WP_Hook->apply_filters(NULL, Array)
#3 D:\XAMPP\htdocs\ThuongMaiDienTu_WP\wp-includes\plugin.php(484): WP_Hook->do_action(Array)
#4 D:\XAMPP\htdocs\ThuongMaiDienTu_WP\wp-includes\template-loader.php(13): do_action('template_redire...')
#5 D:\XAMPP\htdocs\ThuongMaiDienTu_WP\wp-blog-header.php(19): require_once('D:\\XAMPP\\htdocs...')
#6 D:\XAMPP\htdocs\ThuongMaiDienTu_WP\index.php(17): require('D:\\XAMPP\\htdocs...')
#7 {main}
  thrown in D:\XAMPP\htdocs\ThuongMaiDienTu_WP\wp-includes\customize\class-wp-customize-partial.php on line 221

2021-08-10T05:26:41+00:00 CRITICAL Uncaught TypeError: call_user_func(): Argument #1 ($function) must be a valid callback, non-static method Astra_Builder_Header::header_woo_cart() cannot be called statically in D:\XAMPP\htdocs\ThuongMaiDienTu_WP\wp-includes\customize\class-wp-customize-partial.php:221
Stack trace:
#0 D:\XAMPP\htdocs\ThuongMaiDienTu_WP\wp-includes\customize\class-wp-customize-selective-refresh.php(371): WP_Customize_Partial->render(Array)
#1 D:\XAMPP\htdocs\ThuongMaiDienTu_WP\wp-includes\class-wp-hook.php(292): WP_Customize_Selective_Refresh->handle_render_partials_request('')
#2 D:\XAMPP\htdocs\ThuongMaiDienTu_WP\wp-includes\class-wp-hook.php(316): WP_Hook->apply_filters(NULL, Array)
#3 D:\XAMPP\htdocs\ThuongMaiDienTu_WP\wp-includes\plugin.php(484): WP_Hook->do_action(Array)
#4 D:\XAMPP\htdocs\ThuongMaiDienTu_WP\wp-includes\template-loader.php(13): do_action('template_redire...')
#5 D:\XAMPP\htdocs\ThuongMaiDienTu_WP\wp-blog-header.php(19): require_once('D:\\XAMPP\\htdocs...')
#6 D:\XAMPP\htdocs\ThuongMaiDienTu_WP\index.php(17): require('D:\\XAMPP\\htdocs...')
#7 {main}
  thrown in D:\XAMPP\htdocs\ThuongMaiDienTu_WP\wp-includes\customize\class-wp-customize-partial.php on line 221

